{
  "name": "foundryvtt-pf2e-lang-es",
  "title": "Translation: Spanish [PF2E]",
  "description": "Añade soporte para Español al sistema de juego de Pathfinder 2E",
  "version": "2.0.2",
  "private": true,
  "minimumCoreVersion": "0.6.0",
  "compatibleCoreVersion": "0.9.0",
  "author": "L4D15#2706",
  "systems": ["pf2e"],
  "scripts": ["main.js"],
  "languages": [
    {
      "lang": "es",
      "name": "Español",
      "path": "static/lang/es.json"
    }
  ],
  "url": "https://gitlab.com/L4D15/foundryvtt-pf2e-lang-es",
  "manifest": "https://gitlab.com/L4D15/foundryvtt-pf2e-lang-es/-/jobs/artifacts/master/raw/module.json?job=build",
  "download": "https://gitlab.com/L4D15/foundryvtt-pf2e-lang-es/-/jobs/artifacts/master/raw/foundryvtt-pf2e-lang-es.zip?job=build"
}
